{
    "version": 3,
    "configurePresets": [
        {
            "name": "default",
            "cacheVariables": {
                "CMAKE_BUILD_TYPE": "Release",
                "CMAKE_EXPORT_COMPILE_COMMANDS": true
            },
            "binaryDir": "../build/${sourceDirName}",
            "warnings": {
                "deprecated": true,
                "dev": false,
                "uninitialized": true,
                "unusedCli": true,
                "systemVars": true
            }
        },
        {
            "inherits": "default",
            "name": "x86_64-w64-mingw32-libusb-1.0.25-static",
            "description": "64-bit x86 (cross-)compilation for Windows using MinGW-w64",
            "cacheVariables": {
                "CMAKE_INCLUDE_PATH": "${sourceDir}/lib/libusb-1.0.25/include",
                "CMAKE_LIBRARY_PATH": "${sourceDir}/lib/libusb-1.0.25/MinGW64/static",
                "CMAKE_C_COMPILER": "x86_64-w64-mingw32-gcc",
                "CMAKE_CXX_COMPILER": "x86_64-w64-mingw32-g++"
            }
        },
        {
            "inherits": "default",
            "name": "i686-w64-mingw32-libusb-1.0.25-static",
            "description": "32-bit x86 (cross-)compilation for Windows using MinGW-w64",
            "cacheVariables": {
                "CMAKE_INCLUDE_PATH": "${sourceDir}/lib/libusb-1.0.25/include",
                "CMAKE_LIBRARY_PATH": "${sourceDir}/lib/libusb-1.0.25/MinGW32/static",
                "CMAKE_C_COMPILER": "i686-w64-mingw32-gcc",
                "CMAKE_CXX_COMPILER": "i686-w64-mingw32-g++"
            }
        },
        {
            "inherits": [
                "windows-only",
                "x86_64-w64-mingw32-libusb-1.0.25-static"
            ],
            "name": "native-x86_64-w64-mingw32-libusb-1.0.25-static",
            "description": "64-bit x86 compilation on Windows using MinGW-w64",
            "cacheVariables": {
                "CMAKE_C_COMPILER": "gcc",
                "CMAKE_CXX_COMPILER": "g++",
                "CMAKE_C_FLAGS": "-m64",
                "CMAKE_CXX_FLAGS": "-m64"
            }
        },
        {
            "inherits": [
                "windows-only",
                "i686-w64-mingw32-libusb-1.0.25-static"
            ],
            "name": "native-i686-w64-mingw32-libusb-1.0.25-static",
            "description": "32-bit x86 compilation on Windows using MinGW-w64",
            "cacheVariables": {
                "CMAKE_C_COMPILER": "gcc",
                "CMAKE_CXX_COMPILER": "g++",
                "CMAKE_C_FLAGS": "-m32",
                "CMAKE_CXX_FLAGS": "-m32"
            }
        },
        {
            "hidden": true,
            "name": "windows-only",
            "condition": {
                "type": "equals",
                "lhs": "${hostSystemName}",
                "rhs": "Windows"
            }
        }
    ],
    "buildPresets": [
        {
            "name": "default",
            "configurePreset": "default"
        },
        {
            "name": "x86_64-w64-mingw32-libusb-1.0.25-static",
            "configurePreset": "x86_64-w64-mingw32-libusb-1.0.25-static"
        },
        {
            "name": "i686-w64-mingw32-libusb-1.0.25-static",
            "configurePreset": "i686-w64-mingw32-libusb-1.0.25-static"
        },
        {
            "inherits": "windows-only",
            "name": "native-x86_64-w64-mingw32-libusb-1.0.25-static",
            "configurePreset": "native-x86_64-w64-mingw32-libusb-1.0.25-static"
        },
        {
            "inherits": "windows-only",
            "name": "native-i686-w64-mingw32-libusb-1.0.25-static",
            "configurePreset": "native-i686-w64-mingw32-libusb-1.0.25-static"
        },
        {
            "hidden": true,
            "name": "windows-only",
            "condition": {
                "type": "equals",
                "lhs": "${hostSystemName}",
                "rhs": "Windows"
            }
        }
    ]
}
