{
    "version": 3,
    "configurePresets": [
        {
            "name": "default",
            "toolchainFile": "cmake/ToolchainAvrGcc.cmake",
            "cacheVariables": {
                "MCU": "atmega168pa",
                "F_CPU": "16000000UL",
                "CMAKE_BUILD_TYPE": "MinSizeRel",
                "CMAKE_EXPORT_COMPILE_COMMANDS": true
            },
            "binaryDir": "../build/${sourceDirName}",
            "warnings": {
                "deprecated": true,
                "dev": true,
                "uninitialized": false,
                "unusedCli": true,
                "systemVars": true
            }
        }
    ],
    "buildPresets": [
        {
            "name": "default",
            "configurePreset": "default"
        }
    ]
}
